{"_id":{"$oid":"5cd71f7fb55d2106c0003af6"},"username":1122547392,"amount":2500,"updated_at":{"$date":"2019-05-11T19:16:15.000Z"},"created_at":{"$date":"2019-05-11T19:16:15.000Z"}}
{"_id":{"$oid":"5cd7221db55d212388003472"},"username":1122547392,"amount":4000,"updated_at":{"$date":"2019-05-11T19:27:25.000Z"},"created_at":{"$date":"2019-05-11T19:27:25.000Z"}}
{"_id":{"$oid":"5cd72236b55d212388003473"},"username":1122547392,"amount":4000,"updated_at":{"$date":"2019-05-11T19:27:50.000Z"},"created_at":{"$date":"2019-05-11T19:27:50.000Z"}}
{"_id":{"$oid":"5cd74289b55d212d10005ce2"},"username":22222,"amount":5000,"updated_at":{"$date":"2019-05-10T21:45:45.000Z"},"created_at":{"$date":"2019-05-10T21:45:45.000Z"}}
